PCBNEW-LibModule-V1  Вс. 13 нояб. 2011 12:56:14
# encoding utf-8
$INDEX
ALS318
$EndINDEX
$MODULE ALS318
Po 0 0 0 15 4EBF85DD 4EBF85CB ~~
Li ALS318
Cd ALS318 BOARD CONNECTION
Kw CONN
Sc 4EBF85CB
AR ALS318
Op 0 0 0
T0 0 -1000 400 400 0 80 N V 21 N "ALS318"
T1 0 1000 400 400 0 80 N I 21 N "Val**"
DS 8465 492 -8366 492 150 21
DS -8366 492 -8366 -492 150 21
DS -8366 -492 8465 -492 150 21
DS 8466 -491 8466 493 150 21
$PAD
Sh "17" C 600 600 0 0 0
Dr 400 0 0
At STD N 00E0FFFF
Ne 0 ""
Po 7876 0
$EndPAD
$PAD
Sh "16" C 600 600 0 0 0
Dr 400 0 0
At STD N 00E0FFFF
Ne 0 ""
Po 6891 0
$EndPAD
$PAD
Sh "2" C 600 600 0 0 0
Dr 400 0 0
At STD N 00E0FFFF
Ne 0 ""
Po -6890 0
$EndPAD
$PAD
Sh "3" C 600 600 0 0 0
Dr 400 0 0
At STD N 00E0FFFF
Ne 0 ""
Po -5905 0
$EndPAD
$PAD
Sh "4" C 600 600 0 0 0
Dr 400 0 0
At STD N 00E0FFFF
Ne 0 ""
Po -4921 0
$EndPAD
$PAD
Sh "5" C 600 600 0 0 0
Dr 400 0 0
At STD N 00E0FFFF
Ne 0 ""
Po -3905 0
$EndPAD
$PAD
Sh "14" C 600 600 0 0 0
Dr 400 0 0
At STD N 00E0FFFF
Ne 0 ""
Po 4922 0
$EndPAD
$PAD
Sh "15" C 600 600 0 0 0
Dr 400 0 0
At STD N 00E0FFFF
Ne 0 ""
Po 5907 0
$EndPAD
$PAD
Sh "13" C 600 600 0 0 0
Dr 400 0 0
At STD N 00E0FFFF
Ne 0 ""
Po 3938 0
$EndPAD
$PAD
Sh "12" C 600 600 0 0 0
Dr 400 0 0
At STD N 00E0FFFF
Ne 0 ""
Po 2953 0
$EndPAD
$PAD
Sh "11" C 600 600 0 0 0
Dr 400 0 0
At STD N 00E0FFFF
Ne 0 ""
Po 1969 0
$EndPAD
$PAD
Sh "10" C 600 600 0 0 0
Dr 400 0 0
At STD N 00E0FFFF
Ne 0 ""
Po 985 0
$EndPAD
$PAD
Sh "1" R 600 600 0 0 0
Dr 400 0 0
At STD N 00E0FFFF
Ne 0 ""
Po -7874 0
$EndPAD
$PAD
Sh "6" C 600 600 0 0 0
Dr 400 0 0
At STD N 00E0FFFF
Ne 0 ""
Po -2952 0
$EndPAD
$PAD
Sh "7" C 600 600 0 0 0
Dr 400 0 0
At STD N 00E0FFFF
Ne 0 ""
Po -1968 0
$EndPAD
$PAD
Sh "8" C 600 600 0 0 0
Dr 400 0 0
At STD N 00E0FFFF
Ne 0 ""
Po -984 0
$EndPAD
$PAD
Sh "9" C 600 600 0 0 0
Dr 400 0 0
At STD N 00E0FFFF
Ne 0 ""
Po 1 0
$EndPAD
$EndMODULE  ALS318
$EndLIBRARY
